Gráficos y Visualización de Datos
…
class: split-40
count: false
.column[.content[

```r
*base
```
]]
.column[.content[

```
  # A tibble: 17,428 × 177
     CODUSU      ANO4 TRIME…¹ NRO_H…² COMPO…³   H15 REGION MAS_500 AGLOM…⁴ PONDERA
     <chr>      <int>   <int>   <int>   <int> <int>  <int> <chr>     <int>   <int>
   1 TQRMNOQQS…  2021       4       1       2     1     40 S            23     314
   2 TQRMNOPPR…  2021       4       1       2     1     44 N            17     353
   3 TQRMNOPPR…  2021       4       1       6     1     44 N            17     353
   4 TQRMNORST…  2021       4       1       1     1     44 N            17     249
   5 TQRMNOPSR…  2021       4       1       1     1     44 N            17     329
   6 TQRMNOQWP…  2021       4       1       1     1     44 N            17     439
   7 TQRMNORPR…  2021       4       1       4     1     42 N            26     130
   8 TQRMNOQTU…  2021       4       1       1     1     42 N            26      96
   9 TQRMNORVS…  2021       4       1       1     1     43 S             2     761
  10 TQRMNORVS…  2021       4       1       2     1     43 S             2     761
  # … with 17,418 more rows, 167 more variables: CH03 <int>, CH04 <fct>,
  #   CH05 <chr>, CH06 <int>, CH07 <int>, CH08 <int>, CH09 <int>, CH10 <int>,
  #   CH11 <int>, CH12 <int>, CH13 <int>, CH14 <chr>, CH15 <int>, CH15_COD <int>,
  #   CH16 <int>, CH16_COD <int>, NIVEL_ED <fct>, ESTADO <int>, CAT_OCUP <int>,
  #   CAT_INAC <int>, IMPUTA <int>, PP02C1 <int>, PP02C2 <int>, PP02C3 <int>,
  #   PP02C4 <int>, PP02C5 <int>, PP02C6 <int>, PP02C7 <int>, PP02C8 <int>,
  #   PP02E <int>, PP02H <int>, PP02I <int>, PP03C <int>, PP03D <int>, …
  # ℹ Use `print(n = ...)` to see more rows, and `colnames()` to see all variable names
```
]]
---
class: split-40
count: false
.column[.content[

```r
base %>%  
* select(NIVEL_ED, CH04, PONDERA)
```
]]
.column[.content[

```
  # A tibble: 17,428 × 3
     NIVEL_ED              CH04  PONDERA
     <fct>                 <fct>   <int>
   1 Sup. completo         Varón     314
   2 Secundaria completa   Mujer     353
   3 Secundaria completa   Varón     353
   4 Sup. incompleto       Mujer     249
   5 Secundaria incompleta Mujer     329
   6 Sup. incompleto       Varón     439
   7 Sup. completo         Varón     130
   8 Sup. completo         Mujer      96
   9 Sup. completo         Varón     761
  10 Secundaria completa   Mujer     761
  # … with 17,418 more rows
  # ℹ Use `print(n = ...)` to see more rows
```
…
```r
base %>%  
  select(NIVEL_ED, CH04, PONDERA) %>%  
* group_by(NIVEL_ED)
```
]]
.column[.content[

```
  # A tibble: 17,428 × 3
  # Groups:   NIVEL_ED [7]
     NIVEL_ED              CH04  PONDERA
     <fct>                 <fct>   <int>
   1 Sup. completo         Varón     314
   2 Secundaria completa   Mujer     353
   3 Secundaria completa   Varón     353
   4 Sup. incompleto       Mujer     249
   5 Secundaria incompleta Mujer     329
   6 Sup. incompleto       Varón     439
   7 Sup. completo         Varón     130
   8 Sup. completo         Mujer      96
   9 Sup. completo         Varón     761
  10 Secundaria completa   Mujer     761
  # … with 17,418 more rows
  # ℹ Use `print(n = ...)` to see more rows
```
…
```r
*base
```
]]
.column[.content[

```
  # A tibble: 17,428 × 177
     CODUSU      ANO4 TRIME…¹ NRO_H…² COMPO…³   H15 REGION MAS_500 AGLOM…⁴ PONDERA
     <chr>      <int>   <int>   <int>   <int> <int>  <int> <chr>     <int>   <int>
   1 TQRMNOQQS…  2021       4       1       2     1     40 S            23     314
   2 TQRMNOPPR…  2021       4       1       2     1     44 N            17     353
   3 TQRMNOPPR…  2021       4       1       6     1     44 N            17     353
   4 TQRMNORST…  2021       4       1       1     1     44 N            17     249
   5 TQRMNOPSR…  2021       4       1       1     1     44 N            17     329
   6 TQRMNOQWP…  2021       4       1       1     1     44 N            17     439
   7 TQRMNORPR…  2021       4       1       4     1     42 N            26     130
   8 TQRMNOQTU…  2021       4       1       1     1     42 N            26      96
   9 TQRMNORVS…  2021       4       1       1     1     43 S             2     761
  10 TQRMNORVS…  2021       4       1       2     1     43 S             2     761
  # … with 17,418 more rows, 167 more variables: CH03 <int>, CH04 <fct>,
  #   CH05 <chr>, CH06 <int>, CH07 <int>, CH08 <int>, CH09 <int>, CH10 <int>,
  #   CH11 <int>, CH12 <int>, CH13 <int>, CH14 <chr>, CH15 <int>, CH15_COD <int>,
  #   CH16 <int>, CH16_COD <int>, NIVEL_ED <fct>, ESTADO <int>, CAT_OCUP <int>,
  #   CAT_INAC <int>, IMPUTA <int>, PP02C1 <int>, PP02C2 <int>, PP02C3 <int>,
  #   PP02C4 <int>, PP02C5 <int>, PP02C6 <int>, PP02C7 <int>, PP02C8 <int>,
  #   PP02E <int>, PP02H <int>, PP02I <int>, PP03C <int>, PP03D <int>, …
  # ℹ Use `print(n = ...)` to see more rows, and `colnames()` to see all variable names
```
]]
---
class: split-40
count: false
.column[.content[

```r
base %>%  
* select(P21,EDAD = CH06,SEXO = CH04,NIVEL_ED)
```
]]
.column[.content[

```
  # A tibble: 17,428 × 4
        P21  EDAD SEXO  NIVEL_ED             
      <int> <int> <fct> <fct>                
   1 120000    45 Varón Sup. completo        
   2  75000    29 Mujer Secundaria completa  
   3  80000    32 Varón Secundaria completa  
   4  45000    44 Mujer Sup. incompleto      
   5  30000    49 Mujer Secundaria incompleta
   6  65000    32 Varón Sup. incompleto      
   7  60000    42 Varón Sup. completo        
   8  80000    58 Mujer Sup. completo        
   9  80000    38 Varón Sup. completo        
  10  80000    30 Mujer Secundaria completa  
  # … with 17,418 more rows
  # ℹ Use `print(n = ...)` to see more rows
```
…
